[
  
  {
    "pub_date":"22 февраля 2014 г",
    "category":"Практический семинар",
    "text":"Эффективный интернет-маркетинг для руководителей. Как увеличить продажи через Интернет"
  },
  {
    "pub_date":"22 февраля 2014 г",
    "category":"Практический семинар",
    "text":"Эффективный интернет-маркетинг для руководителей. Как увеличить продажи через Интернет"
  },
  {
    "pub_date":"22 февраля 2014 г",
    "category":"Практический семинар",
    "text":"Эффективный интернет-маркетинг для руководителей. Как увеличить продажи через Интернет"
  },
  {
    "pub_date":"22 февраля 2014 г",
    "category":"Практический семинар",
    "text":"Эффективный интернет-маркетинг для руководителей. Как увеличить продажи через Интернет"
  },
  {
    "pub_date":"22 февраля 2014 г",
    "category":"Практический семинар",
    "text":"Эффективный интернет-маркетинг для руководителей. Как увеличить продажи через Интернет"
  },
  {
    "pub_date":"22 февраля 2014 г",
    "category":"Практический семинар",
    "text":"Эффективный интернет-маркетинг для руководителей. Как увеличить продажи через Интернет"
  },
  {
    "pub_date":"22 февраля 2014 г",
    "category":"Практический семинар",
    "text":"Эффективный интернет-маркетинг для руководителей. Как увеличить продажи через Интернет"
  },
  {
    "pub_date":"22 февраля 2014 г",
    "category":"Практический семинар",
    "text":"Эффективный интернет-маркетинг для руководителей. Как увеличить продажи через Интернет"
  }
]